{
	"extensionName": {
		"message": "Малюнки Ґіблі на вашій новій вкладці"
	},
	"extensionDescription": {
		"message": "Ставить малюнки Студії Ґіблі на фон вашої нової вкладки"
	},
	"openOnURL": {
		"message": "Відкрити на $URL$",
		"description": "Використовується у меню правої клавіші для відкриття зображення на сайті-джерелі",
		"placeholders": {
			"url": {
				"content": "$1",
				"example": "ghibli.jp"
			}
		}
	},
	"save": {
		"message": "Зберегти",
		"description": "Використовується у меню правої клавіші для збереження зображення"
	},
	"baron": {
		"message": "Котяча вдячність",
		"description": "Регіональна назва ghibli.jp/works/baron"
	},
	"chihiro": {
		"message": "Віднесені привидами",
		"description": "Регіональна назва ghibli.jp/works/chihiro"
	},
	"ged": {
		"message": "Сказання Земномор'я",
		"description": "Регіональна назва ghibli.jp/works/ged"
	},
	"ghiblies": {
		"message": "Ґіблі епізод 2",
		"description": "Регіональна назва ghibli.jp/works/ghiblies"
	},
	"howl": {
		"message": "Мандрівний замок",
		"description": "Регіональна назва ghibli.jp/works/howl"
	},
	"kaguyahime": {
		"message": "Казка про принцесу Каґую",
		"description": "Регіональна назва ghibli.jp/works/kaguyahime"
	},
	"karigurashi": {
		"message": "Позичайка Аріетті",
		"description": "Регіональна назва ghibli.jp/works/karigurashi"
	},
	"kazetachinu": {
		"message": "Вітер дужчає",
		"description": "Регіональна назва ghibli.jp/works/kazetachinu"
	},
	"kokurikozaka": {
		"message": "Зі схилів Кокуріко",
		"description": "Регіональна назва ghibli.jp/works/kokurikozaka"
	},
	"laputa": {
		"message": "Небесний замок Лапута",
		"description": "Regional title of ghibli.jp/works/laputa"
	},
	"majo": {
		"message": "Служба доставки Кікі, юної відьми",
		"description": "Регіональна назва ghibli.jp/works/majo"
	},
	"marnie": {
		"message": "Спогади про Марні",
		"description": "Регіональна назва ghibli.jp/works/marnie"
	},
	"mimi": {
		"message": "Шепіт серця",
		"description": "Регіональна назва ghibli.jp/works/mimi"
	},
	"mononoke": {
		"message": "Принцеса Мононоке",
		"description": "Регіональна назва ghibli.jp/works/mononoke"
	},
	"nausicaa": {
		"message": "Навсікая з Долини Вітрів",
		"description":"Regional title of ghibli.jp/works/nausicaa"
	},
	"omoide": {
		"message": "Лишень учора",
		"description":"Regional title of ghibli.jp/works/omoide"
	},
	"onyourmark": {
		"message": "On Your Mark",
		"description": "Regional title of ghibli.jp/works/onyourmark"
	},
	"ponyo": {
		"message": "Рибка Поньо на кручі",
		"description": "Регіональна назва ghibli.jp/works/ponyo"
	},
	"porco": {
		"message": "Порко Россо",
		"description": "Регіональна назва ghibli.jp/works/porco"
	},
	"redturtle": {
		"message": "Червона черепаха",
		"description": "Regional title of ghibli.jp/works/red-turtle"
	},
	"tanuki": {
		"message": "Помпоко: Війна танукі в період Хейсей",
		"description": "Регіональна назва ghibli.jp/works/tanuki"
	},
	"totoro": {
		"message": "Мій сусід Тоторо",
		"description": "Регіональна назва ghibli.jp/works/totoro"
	},
	"umi": {
		"message": "Я чую море",
		"description": "Регіональна назва ghibli.jp/works/umi"
	},
	"yamada": {
		"message": "Мої сусіди Ямада",
		"description": "Регіональна назва ghibli.jp/works/yamada"
	}
}